G04 #@! TF.GenerationSoftware,KiCad,Pcbnew,(5.1.2)-1*
G04 #@! TF.CreationDate,2020-05-17T19:24:58+10:00*
G04 #@! TF.ProjectId,fpc_ddk_ff18,6670635f-6464-46b5-9f66-6631382e6b69,rev?*
G04 #@! TF.SameCoordinates,Original*
G04 #@! TF.FileFunction,Profile,NP*
%FSLAX46Y46*%
G04 Gerber Fmt 4.6, Leading zero omitted, Abs format (unit mm)*
G04 Created by KiCad (PCBNEW (5.1.2)-1) date 2020-05-17 19:24:58*
%MOMM*%
%LPD*%
G04 APERTURE LIST*
%ADD10C,0.050000*%
G04 APERTURE END LIST*
D10*
X180000000Y-85000000D02*
X180000000Y-105000000D01*
X160000000Y-85000000D02*
X180000000Y-85000000D01*
X160000000Y-105000000D02*
X160000000Y-85000000D01*
X170000000Y-105000000D02*
X160000000Y-105000000D01*
X180000000Y-105000000D02*
X170000000Y-105000000D01*
M02*
