G04 #@! TF.GenerationSoftware,KiCad,Pcbnew,(5.1.2)-1*
G04 #@! TF.CreationDate,2020-05-17T19:24:57+10:00*
G04 #@! TF.ProjectId,fpc_ddk_ff18,6670635f-6464-46b5-9f66-6631382e6b69,rev?*
G04 #@! TF.SameCoordinates,Original*
G04 #@! TF.FileFunction,Legend,Top*
G04 #@! TF.FilePolarity,Positive*
%FSLAX46Y46*%
G04 Gerber Fmt 4.6, Leading zero omitted, Abs format (unit mm)*
G04 Created by KiCad (PCBNEW (5.1.2)-1) date 2020-05-17 19:24:57*
%MOMM*%
%LPD*%
G04 APERTURE LIST*
%ADD10C,0.120000*%
%ADD11C,0.150000*%
G04 APERTURE END LIST*
D10*
X175250000Y-102630000D02*
X175250000Y-97430000D01*
X167570000Y-102630000D02*
X175250000Y-102630000D01*
X164970000Y-97430000D02*
X175250000Y-97430000D01*
X167570000Y-102630000D02*
X167570000Y-100030000D01*
X167570000Y-100030000D02*
X164970000Y-100030000D01*
X164970000Y-100030000D02*
X164970000Y-97430000D01*
X166300000Y-102630000D02*
X164970000Y-102630000D01*
X164970000Y-102630000D02*
X164970000Y-101300000D01*
X167450000Y-90975000D02*
X168200000Y-90975000D01*
X171800000Y-90975000D02*
X172550000Y-90975000D01*
X168750000Y-87825000D02*
X171250000Y-87825000D01*
X167450000Y-87825000D02*
X167450000Y-90975000D01*
X172550000Y-87825000D02*
X172550000Y-90975000D01*
X167450000Y-87825000D02*
X167750000Y-87825000D01*
X172250000Y-87825000D02*
X172550000Y-87825000D01*
X168252499Y-90535380D02*
G75*
G03X168252499Y-90535380I-172739J0D01*
G01*
D11*
X162566666Y-99452380D02*
X162566666Y-100166666D01*
X162519047Y-100309523D01*
X162423809Y-100404761D01*
X162280952Y-100452380D01*
X162185714Y-100452380D01*
X163566666Y-100452380D02*
X162995238Y-100452380D01*
X163280952Y-100452380D02*
X163280952Y-99452380D01*
X163185714Y-99595238D01*
X163090476Y-99690476D01*
X162995238Y-99738095D01*
X169788586Y-85941540D02*
X169788586Y-86655826D01*
X169740967Y-86798683D01*
X169645729Y-86893921D01*
X169502872Y-86941540D01*
X169407634Y-86941540D01*
X170217158Y-86036779D02*
X170264777Y-85989160D01*
X170360015Y-85941540D01*
X170598110Y-85941540D01*
X170693348Y-85989160D01*
X170740967Y-86036779D01*
X170788586Y-86132017D01*
X170788586Y-86227255D01*
X170740967Y-86370112D01*
X170169539Y-86941540D01*
X170788586Y-86941540D01*
M02*
