(export (version D)
  (design
    (source C:\Users\ranks\git\fpc_ddk_ff18\fpc_ddk_ff18\fpc_ddk_ff18.sch)
    (date "17/05/2020 7:41:19 PM")
    (tool "Eeschema (5.1.2)-1")
    (sheet (number 1) (name /) (tstamps /)
      (title_block
        (title)
        (company)
        (rev)
        (date)
        (source fpc_ddk_ff18.sch)
        (comment (number 1) (value ""))
        (comment (number 2) (value ""))
        (comment (number 3) (value ""))
        (comment (number 4) (value "")))))
  (components
    (comp (ref J2)
      (value DDK_FF18-10A-R11A-3H_1x8_P0.4mm_Horizontal)
      (footprint DDK_FF18-10A-R11A-3H_1x8_P0.4mm_Horizontal:DDK_FF18-10A-R11A-3H_1x8_P0.4mm_Horizontal)
      (datasheet ~)
      (libsource (lib Connector) (part Conn_01x08_Female) (description "Generic connector, single row, 01x08, script generated (kicad-library-utils/schlib/autogen/connector/)"))
      (sheetpath (names /) (tstamps /))
      (tstamp 5EB6ADE1))
    (comp (ref J1)
      (value Conn_01x08_Male)
      (footprint Connector_PinHeader_2.54mm:PinHeader_2x04_P2.54mm_Vertical)
      (datasheet ~)
      (libsource (lib Connector) (part Conn_01x08_Male) (description "Generic connector, single row, 01x08, script generated (kicad-library-utils/schlib/autogen/connector/)"))
      (sheetpath (names /) (tstamps /))
      (tstamp 5EB6B92C)))
  (libparts
    (libpart (lib Connector) (part Conn_01x08_Female)
      (description "Generic connector, single row, 01x08, script generated (kicad-library-utils/schlib/autogen/connector/)")
      (docs ~)
      (footprints
        (fp Connector*:*_1x??_*))
      (fields
        (field (name Reference) J)
        (field (name Value) Conn_01x08_Female))
      (pins
        (pin (num 1) (name Pin_1) (type passive))
        (pin (num 2) (name Pin_2) (type passive))
        (pin (num 3) (name Pin_3) (type passive))
        (pin (num 4) (name Pin_4) (type passive))
        (pin (num 5) (name Pin_5) (type passive))
        (pin (num 6) (name Pin_6) (type passive))
        (pin (num 7) (name Pin_7) (type passive))
        (pin (num 8) (name Pin_8) (type passive))))
    (libpart (lib Connector) (part Conn_01x08_Male)
      (description "Generic connector, single row, 01x08, script generated (kicad-library-utils/schlib/autogen/connector/)")
      (docs ~)
      (footprints
        (fp Connector*:*_1x??_*))
      (fields
        (field (name Reference) J)
        (field (name Value) Conn_01x08_Male))
      (pins
        (pin (num 1) (name Pin_1) (type passive))
        (pin (num 2) (name Pin_2) (type passive))
        (pin (num 3) (name Pin_3) (type passive))
        (pin (num 4) (name Pin_4) (type passive))
        (pin (num 5) (name Pin_5) (type passive))
        (pin (num 6) (name Pin_6) (type passive))
        (pin (num 7) (name Pin_7) (type passive))
        (pin (num 8) (name Pin_8) (type passive)))))
  (libraries
    (library (logical Connector)
      (uri "C:\\Program Files\\KiCad\\share\\kicad\\library/Connector.lib")))
  (nets
    (net (code 1) (name "Net-(J1-Pad5)")
      (node (ref J2) (pin 5))
      (node (ref J1) (pin 5)))
    (net (code 2) (name "Net-(J1-Pad8)")
      (node (ref J2) (pin 8))
      (node (ref J1) (pin 8)))
    (net (code 3) (name "Net-(J1-Pad7)")
      (node (ref J1) (pin 7))
      (node (ref J2) (pin 7)))
    (net (code 4) (name "Net-(J1-Pad6)")
      (node (ref J1) (pin 6))
      (node (ref J2) (pin 6)))
    (net (code 5) (name "Net-(J1-Pad4)")
      (node (ref J2) (pin 4))
      (node (ref J1) (pin 4)))
    (net (code 6) (name "Net-(J1-Pad3)")
      (node (ref J2) (pin 3))
      (node (ref J1) (pin 3)))
    (net (code 7) (name "Net-(J1-Pad2)")
      (node (ref J2) (pin 2))
      (node (ref J1) (pin 2)))
    (net (code 8) (name "Net-(J1-Pad1)")
      (node (ref J1) (pin 1))
      (node (ref J2) (pin 1)))))