(module DDK_FF18-10A-R11A-3H_1x8_P0.4mm_Horizontal (layer F.Cu) (tedit 5EC106AD)
  (attr smd)
  (fp_text reference REF** (at 0.12192 -2.91084) (layer F.SilkS)
    (effects (font (size 1 1) (thickness 0.15)))
  )
  (fp_text value DDK_FF18-10A-R11A-3H_1x8_P0.4mm_Horizontal (at -0.10922 3.15722) (layer F.Fab)
    (effects (font (size 1 1) (thickness 0.15)))
  )
  (fp_line (start -2.55 1.575) (end -1.8 1.575) (layer F.SilkS) (width 0.12))
  (fp_line (start 1.8 1.575) (end 2.55 1.575) (layer F.SilkS) (width 0.12))
  (fp_line (start -1.25 -1.575) (end 1.25 -1.575) (layer F.SilkS) (width 0.12))
  (fp_line (start -2.55 -1.575) (end -2.55 1.575) (layer F.SilkS) (width 0.12))
  (fp_line (start 2.55 -1.575) (end 2.55 1.575) (layer F.SilkS) (width 0.12))
  (fp_line (start -2.55 -1.575) (end -2.25 -1.575) (layer F.SilkS) (width 0.12))
  (fp_line (start 2.25 -1.575) (end 2.55 -1.575) (layer F.SilkS) (width 0.12))
  (fp_circle (center -1.92024 1.13538) (end -1.78054 1.23698) (layer F.SilkS) (width 0.12))
  (pad "" smd rect (at 1.85 -1.3) (size 0.25 0.75) (layers F.Cu F.Paste F.Mask))
  (pad "" smd rect (at -1.85 -1.3) (size 0.25 0.75) (layers F.Cu F.Paste F.Mask))
  (pad 5 smd rect (at 0.2 1.3) (size 0.23 0.75) (layers F.Cu F.Paste F.Mask))
  (pad 4 smd rect (at -0.2 1.3) (size 0.23 0.75) (layers F.Cu F.Paste F.Mask))
  (pad 6 smd rect (at 0.6 1.3) (size 0.23 0.75) (layers F.Cu F.Paste F.Mask))
  (pad 3 smd rect (at -0.6 1.3) (size 0.23 0.75) (layers F.Cu F.Paste F.Mask))
  (pad 7 smd rect (at 1 1.3) (size 0.23 0.75) (layers F.Cu F.Paste F.Mask))
  (pad 2 smd rect (at -1 1.3) (size 0.23 0.75) (layers F.Cu F.Paste F.Mask))
  (pad 8 smd rect (at 1.4 1.3) (size 0.23 0.75) (layers F.Cu F.Paste F.Mask))
  (pad 1 smd rect (at -1.4 1.3) (size 0.23 0.75) (layers F.Cu F.Paste F.Mask))
)
